-------------------------------------------------------------------------------
Test set: com.ti.enterprise.EnterpriseApplicationTests
-------------------------------------------------------------------------------
Tests run: 1, Failures: 0, Errors: 0, Skipped: 0, Time elapsed: 6.818 s - in com.ti.enterprise.EnterpriseApplicationTests
