/root/workspace/enterprise/src/main/java/com/ti/enterprise/dao/Employees.java
/root/workspace/enterprise/src/main/java/com/ti/enterprise/EnterpriseApplication.java
/root/workspace/enterprise/src/main/java/com/ti/enterprise/dao/EmployeeDAO.java
/root/workspace/enterprise/src/main/java/com/ti/enterprise/entity/Employee.java
/root/workspace/enterprise/src/main/java/com/ti/enterprise/controller/EmployeeController.java
